2.071860e-003
7.406900e-002
1.010032e-001
1.108445e-001
1.170601e-001
9.582353e-002
7.821272e-002
6.526359e-002
-6.785342e-002
-7.562289e-002
-1.051469e-001
-1.072188e-001
-1.098086e-001
-9.634149e-002
-7.147917e-002
6.215580e-003
7.769475e-002
9.323370e-002
1.051469e-001
1.160242e-001
1.092906e-001
7.406900e-002
6.474563e-002
-6.526359e-002
-8.080254e-002
-9.582353e-002
-1.165421e-001
-9.634149e-002
-8.908998e-002
-6.940731e-002
6.215580e-003
8.494626e-002
1.035930e-001
1.103266e-001
1.186140e-001
1.051469e-001
8.183847e-002
5.904801e-002
-7.096121e-002
-8.546423e-002
-1.113625e-001
-1.155062e-001
-9.685946e-002
-1.025571e-001
-7.924865e-002
5.179650e-004
8.391033e-002
1.015211e-001
1.041110e-001
1.129164e-001
1.108445e-001
7.769475e-002
7.096121e-002
-7.096121e-002
-7.976661e-002
-1.015211e-001
-1.170601e-001
-1.061828e-001
-1.004852e-001
-7.924865e-002
-7.251510e-003
8.598219e-002
9.219777e-002
1.010032e-001
1.160242e-001
1.015211e-001
8.339237e-002
6.370970e-002
-5.697615e-002
-8.028458e-002
-9.530556e-002
-1.087727e-001
-1.108445e-001
-9.841335e-002
-7.096121e-002
-3.625755e-003
7.769475e-002
9.478760e-002
1.082547e-001
1.108445e-001
1.077367e-001
7.769475e-002
6.888935e-002
-6.163784e-002
-7.821272e-002
-9.944928e-002
-1.046289e-001
-1.051469e-001
-9.789539e-002
-7.717679e-002
-6.733545e-003
7.717679e-002
9.685946e-002
9.944928e-002
1.067008e-001
1.035930e-001
8.132051e-002
5.697615e-002
-5.542226e-002
-8.080254e-002
-1.025571e-001
-1.118804e-001
-1.010032e-001
-9.841335e-002
-7.147917e-002
-1.035930e-003
7.199714e-002
1.025571e-001
1.025571e-001
1.035930e-001
1.082547e-001
8.650016e-002
6.733545e-002
-6.837138e-002
-8.598219e-002
-1.108445e-001
-1.092906e-001
-1.072188e-001
-1.015211e-001
-8.598219e-002
1.553895e-003
8.442830e-002
9.789539e-002
1.098086e-001
1.103266e-001
1.061828e-001
8.650016e-002
6.422766e-002
-5.594022e-002
-7.873068e-002
-1.046289e-001
-1.051469e-001
-9.996725e-002
-9.996725e-002
-8.028458e-002
-2.589825e-003
8.494626e-002
1.030750e-001
1.025571e-001
1.144703e-001
9.944928e-002
7.510493e-002
5.904801e-002
-6.474563e-002
-8.650016e-002
-1.056649e-001
-1.118804e-001
-1.051469e-001
-1.010032e-001
-7.665882e-002
0.000000e+000
7.769475e-002
9.426963e-002
1.103266e-001
1.129164e-001
9.841335e-002
8.287440e-002
5.749412e-002
-6.008394e-002
-7.614086e-002
-1.061828e-001
-1.186140e-001
-9.737742e-002
-9.478760e-002
-7.873068e-002
3.107790e-003
7.355103e-002
1.010032e-001
1.092906e-001
1.072188e-001
1.041110e-001
7.510493e-002
7.096121e-002
-5.490429e-002
-8.132051e-002
-9.582353e-002
-1.165421e-001
-1.072188e-001
-9.271574e-002
-7.976661e-002
-3.625755e-003
7.665882e-002
9.219777e-002
9.582353e-002
1.077367e-001
1.098086e-001
8.442830e-002
5.697615e-002
-6.474563e-002
-7.769475e-002
-9.893132e-002
-1.186140e-001
-1.072188e-001
-1.030750e-001
-8.391033e-002
-5.697615e-003
8.132051e-002
9.893132e-002
1.072188e-001
1.186140e-001
9.634149e-002
8.442830e-002
5.904801e-002
-6.733545e-002
-7.717679e-002
-1.098086e-001
-1.108445e-001
-9.789539e-002
-9.323370e-002
-7.873068e-002
1.553895e-003
7.821272e-002
1.035930e-001
1.092906e-001
1.155062e-001
1.077367e-001
8.391033e-002
5.956598e-002
-5.490429e-002
-8.235644e-002
-1.030750e-001
-1.041110e-001
-1.035930e-001
-9.167981e-002
-7.924865e-002
7.251510e-003
8.442830e-002
9.271574e-002
1.051469e-001
1.061828e-001
1.113625e-001
8.546423e-002
5.801208e-002
-5.594022e-002
-8.183847e-002
-1.067008e-001
-1.149882e-001
-1.020391e-001
-8.908998e-002
-8.235644e-002
8.287440e-003
7.251510e-002
1.041110e-001
1.051469e-001
1.072188e-001
1.056649e-001
7.355103e-002
6.940731e-002
-6.474563e-002
-7.873068e-002
-9.634149e-002
-1.123984e-001
-1.092906e-001
-1.035930e-001
-8.391033e-002
-8.287440e-003
7.147917e-002
8.960795e-002
9.685946e-002
1.139523e-001
9.634149e-002
7.251510e-002
6.060191e-002
-5.956598e-002
-7.562289e-002
-1.098086e-001
-1.092906e-001
-1.098086e-001
-8.908998e-002
-8.080254e-002
5.697615e-003
7.251510e-002
9.996725e-002
1.108445e-001
1.129164e-001
9.789539e-002
7.458696e-002
6.837138e-002
-5.749412e-002
-7.924865e-002
-1.004852e-001
-1.030750e-001
-1.046289e-001
-1.020391e-001
-8.028458e-002
5.179650e-003
8.494626e-002
1.035930e-001
9.685946e-002
1.035930e-001
1.015211e-001
8.598219e-002
5.801208e-002
-6.681749e-002
-8.598219e-002
-1.010032e-001
-1.165421e-001
-9.996725e-002
-9.012591e-002
-7.976661e-002
1.035930e-003
7.199714e-002
9.737742e-002
1.108445e-001
1.108445e-001
9.685946e-002
7.562289e-002
7.044324e-002
-5.801208e-002
-8.391033e-002
-9.530556e-002
-1.056649e-001
-1.087727e-001
-1.025571e-001
-8.028458e-002
-7.769475e-003
6.992528e-002
9.064388e-002
9.944928e-002
1.155062e-001
1.072188e-001
7.199714e-002
6.422766e-002
-6.060191e-002
-8.701812e-002
-1.015211e-001
-1.108445e-001
-9.737742e-002
-1.025571e-001
-8.287440e-002
4.143720e-003
8.028458e-002
9.271574e-002
9.634149e-002
1.113625e-001
1.046289e-001
8.235644e-002
5.594022e-002
-5.956598e-002
-7.821272e-002
-1.103266e-001
-1.067008e-001
-9.634149e-002
-8.753609e-002
-7.873068e-002
-4.661685e-003
7.406900e-002
1.020391e-001
1.010032e-001
1.046289e-001
9.996725e-002
8.028458e-002
6.474563e-002
-6.163784e-002
-8.028458e-002
-1.025571e-001
-1.103266e-001
-1.108445e-001
-8.960795e-002
-7.717679e-002
-8.287440e-003
8.339237e-002
9.116184e-002
1.061828e-001
1.061828e-001
1.103266e-001
8.391033e-002
6.008394e-002
-5.645819e-002
-8.339237e-002
-9.996725e-002
-1.077367e-001
-1.098086e-001
-9.789539e-002
-8.546423e-002
-6.733545e-003
8.494626e-002
1.010032e-001
9.841335e-002
1.067008e-001
9.944928e-002
7.769475e-002
6.060191e-002
-6.215580e-002
-8.339237e-002
-1.113625e-001
-1.067008e-001
-1.067008e-001
-9.012591e-002
-7.665882e-002
-1.035930e-003
8.132051e-002
9.530556e-002
9.893132e-002
1.191320e-001
9.582353e-002
7.355103e-002
6.526359e-002
-5.956598e-002
-8.339237e-002
-1.015211e-001
-1.180960e-001
-1.103266e-001
-8.753609e-002
-7.044324e-002
6.733545e-003
7.717679e-002
9.478760e-002
9.944928e-002
1.077367e-001
1.077367e-001
8.442830e-002
6.837138e-002
-5.438633e-002
-7.562289e-002
-9.841335e-002
-1.160242e-001
-9.841335e-002
-9.789539e-002
-7.665882e-002
6.215580e-003
8.494626e-002
9.634149e-002
1.067008e-001
1.030750e-001
1.056649e-001
8.442830e-002
6.267377e-002
-6.629952e-002
-8.598219e-002
-1.020391e-001
-1.087727e-001
-1.051469e-001
-8.857202e-002
-7.562289e-002
-7.251510e-003
7.821272e-002
9.323370e-002
1.046289e-001
1.035930e-001
1.098086e-001
8.753609e-002
6.785342e-002
-6.733545e-002
-8.701812e-002
-9.841335e-002
-1.077367e-001
-1.030750e-001
-8.753609e-002
-7.976661e-002
-8.287440e-003
8.546423e-002
9.996725e-002
9.841335e-002
1.103266e-001
1.035930e-001
7.355103e-002
6.319173e-002
-6.319173e-002
-7.873068e-002
-1.015211e-001
-1.149882e-001
-1.004852e-001
-9.530556e-002
-7.199714e-002
-4.661685e-003
7.044324e-002
9.893132e-002
1.108445e-001
1.123984e-001
1.041110e-001
7.303307e-002
6.111987e-002
-6.474563e-002
-8.701812e-002
-1.092906e-001
-1.030750e-001
-9.944928e-002
-9.530556e-002
-7.096121e-002
-6.215580e-003
6.992528e-002
9.530556e-002
9.789539e-002
1.113625e-001
9.685946e-002
7.769475e-002
6.111987e-002
-6.474563e-002
-8.391033e-002
-9.841335e-002
-1.030750e-001
-1.092906e-001
-8.805405e-002
-8.028458e-002
-6.215580e-003
7.614086e-002
9.375167e-002
9.944928e-002
1.098086e-001
9.841335e-002
7.873068e-002
6.785342e-002
-5.749412e-002
-8.339237e-002
-9.789539e-002
-1.134343e-001
-1.077367e-001
-9.323370e-002
-7.355103e-002
0.000000e+000
7.044324e-002
9.116184e-002
9.996725e-002
1.118804e-001
1.087727e-001
7.251510e-002
6.629952e-002
-5.956598e-002
-8.080254e-002
-1.072188e-001
-1.149882e-001
-1.035930e-001
-9.737742e-002
-6.940731e-002
-5.697615e-003
8.235644e-002
9.789539e-002
1.056649e-001
1.160242e-001
1.098086e-001
8.650016e-002
6.111987e-002
-5.542226e-002
-7.976661e-002
-1.072188e-001
-1.180960e-001
-9.944928e-002
-9.685946e-002
-8.287440e-002
-7.251510e-003
8.028458e-002
1.035930e-001
9.789539e-002
1.149882e-001
1.025571e-001
8.701812e-002
6.474563e-002
-6.163784e-002
-7.458696e-002
-1.015211e-001
-1.056649e-001
-1.056649e-001
-8.857202e-002
-7.821272e-002
-5.179650e-004
7.096121e-002
1.004852e-001
1.004852e-001
1.051469e-001
9.582353e-002
8.546423e-002
6.837138e-002
-5.645819e-002
-8.028458e-002
-9.685946e-002
-1.035930e-001
-1.010032e-001
-9.893132e-002
-7.614086e-002
-6.733545e-003
7.924865e-002
9.323370e-002
1.025571e-001
1.051469e-001
1.010032e-001
7.458696e-002
7.147917e-002
-6.163784e-002
-8.546423e-002
-9.530556e-002
-1.139523e-001
-1.041110e-001
-9.167981e-002
-8.287440e-002
3.625755e-003
7.562289e-002
1.025571e-001
1.041110e-001
1.144703e-001
9.789539e-002
8.442830e-002
5.801208e-002
-5.438633e-002
-7.510493e-002
-9.634149e-002
-1.113625e-001
-1.077367e-001
-9.582353e-002
-8.287440e-002
5.179650e-004
8.132051e-002
9.064388e-002
9.789539e-002
1.103266e-001
1.108445e-001
7.614086e-002
6.837138e-002
-6.837138e-002
-8.235644e-002
-1.103266e-001
-1.175781e-001
-1.056649e-001
-1.004852e-001
-7.717679e-002
-3.107790e-003
7.355103e-002
8.805405e-002
9.634149e-002
1.077367e-001
9.996725e-002
8.442830e-002
6.629952e-002
-5.749412e-002
-7.821272e-002
-1.020391e-001
-1.103266e-001
-9.996725e-002
-9.634149e-002
-7.044324e-002
-3.107790e-003
8.442830e-002
9.271574e-002
1.041110e-001
1.103266e-001
1.035930e-001
7.769475e-002
5.697615e-002
-5.853005e-002
-7.717679e-002
-1.098086e-001
-1.061828e-001
-1.067008e-001
-1.015211e-001
-7.303307e-002
-2.589825e-003
6.992528e-002
9.996725e-002
9.737742e-002
1.067008e-001
9.944928e-002
7.562289e-002
6.215580e-002
-7.096121e-002
-8.546423e-002
-1.072188e-001
-1.067008e-001
-1.108445e-001
-8.857202e-002
-6.992528e-002
-1.035930e-003
8.287440e-002
1.015211e-001
9.634149e-002
1.056649e-001
1.025571e-001
8.080254e-002
6.008394e-002
-6.733545e-002
-7.355103e-002
-9.996725e-002
-1.186140e-001
-1.015211e-001
-8.960795e-002
-8.442830e-002
6.733545e-003
7.251510e-002
9.944928e-002
1.010032e-001
1.056649e-001
9.996725e-002
8.339237e-002
6.837138e-002
-6.163784e-002
-7.147917e-002
-1.077367e-001
-1.072188e-001
-1.051469e-001
-9.996725e-002
-7.199714e-002
3.107790e-003
7.355103e-002
9.685946e-002
1.092906e-001
1.067008e-001
1.072188e-001
8.028458e-002
6.992528e-002
-6.319173e-002
-8.391033e-002
-9.530556e-002
-1.186140e-001
-1.025571e-001
-1.010032e-001
-8.132051e-002
6.215580e-003
7.147917e-002
8.960795e-002
1.067008e-001
1.051469e-001
1.056649e-001
8.235644e-002
6.008394e-002
-5.490429e-002
-8.080254e-002
-9.944928e-002
-1.035930e-001
-1.056649e-001
-8.960795e-002
-8.028458e-002
1.035930e-003
7.458696e-002
9.944928e-002
9.996725e-002
1.149882e-001
1.092906e-001
8.442830e-002
5.749412e-002
-6.992528e-002
-8.339237e-002
-9.841335e-002
-1.046289e-001
-9.996725e-002
-9.375167e-002
-7.717679e-002
-6.215580e-003
7.769475e-002
9.375167e-002
9.944928e-002
1.092906e-001
9.944928e-002
7.924865e-002
5.956598e-002
-6.267377e-002
-7.665882e-002
-1.072188e-001
-1.035930e-001
-1.030750e-001
-9.685946e-002
-7.976661e-002
3.107790e-003
7.355103e-002
9.323370e-002
1.098086e-001
1.139523e-001
1.061828e-001
8.753609e-002
6.837138e-002
-5.697615e-002
-8.080254e-002
-1.087727e-001
-1.041110e-001
-1.046289e-001
-8.805405e-002
-7.821272e-002
-1.035930e-003
8.442830e-002
9.116184e-002
1.103266e-001
1.139523e-001
9.841335e-002
7.717679e-002
7.044324e-002
-5.801208e-002
-7.924865e-002
-9.944928e-002
-1.035930e-001
-1.098086e-001
-1.020391e-001
-7.614086e-002
-2.589825e-003
7.096121e-002
9.841335e-002
9.944928e-002
1.035930e-001
1.103266e-001
7.665882e-002
5.645819e-002
-6.474563e-002
-7.769475e-002
-1.020391e-001
-1.077367e-001
-1.035930e-001
-9.893132e-002
-8.339237e-002
-6.733545e-003
7.251510e-002
9.634149e-002
1.113625e-001
1.108445e-001
1.113625e-001
7.303307e-002
6.837138e-002
-5.956598e-002
-7.458696e-002
-9.841335e-002
-1.092906e-001
-1.015211e-001
-9.271574e-002
-6.992528e-002
3.625755e-003
7.873068e-002
1.025571e-001
1.030750e-001
1.186140e-001
1.035930e-001
7.355103e-002
6.992528e-002
-6.215580e-002
-8.391033e-002
-9.685946e-002
-1.170601e-001
-1.056649e-001
-1.010032e-001
-7.717679e-002
5.179650e-003
8.028458e-002
8.805405e-002
1.118804e-001
1.139523e-001
1.118804e-001
7.199714e-002
5.956598e-002
-6.785342e-002
-7.458696e-002
-1.118804e-001
-1.061828e-001
-1.030750e-001
-8.908998e-002
-8.183847e-002
-3.107790e-003
7.096121e-002
9.789539e-002
9.685946e-002
1.196499e-001
1.010032e-001
8.442830e-002
5.853005e-002
-6.681749e-002
-8.442830e-002
-9.530556e-002
-1.082547e-001
-1.010032e-001
-9.893132e-002
-7.821272e-002
7.251510e-003
8.235644e-002
1.030750e-001
1.092906e-001
1.082547e-001
1.092906e-001
8.494626e-002
5.956598e-002
-6.837138e-002
-8.287440e-002
-1.072188e-001
-1.035930e-001
-1.118804e-001
-1.035930e-001
-7.096121e-002
1.035930e-003
8.287440e-002
9.685946e-002
1.118804e-001
1.118804e-001
1.082547e-001
8.235644e-002
6.681749e-002
-6.163784e-002
-7.976661e-002
-9.841335e-002
-1.160242e-001
-1.025571e-001
-1.015211e-001
-7.510493e-002
-8.805405e-003
7.199714e-002
9.271574e-002
1.087727e-001
1.191320e-001
1.015211e-001
8.235644e-002
6.940731e-002
-5.645819e-002
-8.650016e-002
-9.737742e-002
-1.098086e-001
-9.841335e-002
-1.025571e-001
-7.976661e-002
-5.179650e-004
8.183847e-002
8.857202e-002
1.025571e-001
1.165421e-001
9.582353e-002
7.458696e-002
6.163784e-002
-5.438633e-002
-8.080254e-002
-1.041110e-001
-1.118804e-001
-1.046289e-001
-9.893132e-002
-6.940731e-002
-4.143720e-003
8.442830e-002
9.116184e-002
1.067008e-001
1.077367e-001
9.789539e-002
7.769475e-002
5.749412e-002
-5.904801e-002
-7.096121e-002
-9.996725e-002
-1.077367e-001
-1.046289e-001
-9.323370e-002
-8.287440e-002
-9.323370e-003
8.132051e-002
9.219777e-002
9.582353e-002
1.118804e-001
9.996725e-002
8.132051e-002
6.578156e-002
-6.319173e-002
-7.873068e-002
-9.582353e-002
-1.129164e-001
-9.789539e-002
-9.841335e-002
-7.458696e-002
-9.323370e-003
7.096121e-002
9.996725e-002
1.030750e-001
1.160242e-001
1.015211e-001
7.199714e-002
6.008394e-002
-6.163784e-002
-7.406900e-002
-1.103266e-001
-1.144703e-001
-1.072188e-001
-9.789539e-002
-6.992528e-002
-7.251510e-003
8.235644e-002
9.478760e-002
1.077367e-001
1.092906e-001
1.051469e-001
7.614086e-002
6.370970e-002
-6.215580e-002
-8.442830e-002
-1.108445e-001
-1.051469e-001
-1.015211e-001
-9.530556e-002
-6.992528e-002
-4.661685e-003
8.546423e-002
9.789539e-002
1.051469e-001
1.061828e-001
1.010032e-001
8.183847e-002
6.370970e-002
-5.749412e-002
-7.406900e-002
-9.789539e-002
-1.149882e-001
-1.035930e-001
-9.064388e-002
-7.769475e-002
-1.553895e-003
7.976661e-002
9.426963e-002
9.582353e-002
1.061828e-001
9.582353e-002
8.494626e-002
6.215580e-002
-6.060191e-002
-8.287440e-002
-1.113625e-001
-1.175781e-001
-9.893132e-002
-1.041110e-001
-8.546423e-002
3.625755e-003
7.096121e-002
9.478760e-002
1.108445e-001
1.129164e-001
9.996725e-002
7.562289e-002
6.474563e-002
-5.956598e-002
-8.183847e-002
-1.015211e-001
-1.160242e-001
-9.944928e-002
-9.996725e-002
-7.614086e-002
0.000000e+000
7.355103e-002
9.116184e-002
1.046289e-001
